<?xml version="1.0" encoding="UTF-8" standalone="no"?>
<svg
   width="176"
   height="20"
   version="1.1"
   id="svg28"
   sodipodi:docname="upgrade-compat.svg"
   inkscape:version="1.1.2 (0a00cf5339, 2022-02-04)"
   xmlns:inkscape="http://www.inkscape.org/namespaces/inkscape"
   xmlns:sodipodi="http://sodipodi.sourceforge.net/DTD/sodipodi-0.dtd"
   xmlns="http://www.w3.org/2000/svg"
   xmlns:svg="http://www.w3.org/2000/svg">
  <defs
     id="defs32" />
  <sodipodi:namedview
     id="namedview30"
     pagecolor="#ffffff"
     bordercolor="#666666"
     borderopacity="1.0"
     inkscape:pageshadow="2"
     inkscape:pageopacity="0.0"
     inkscape:pagecheckerboard="0"
     showgrid="false"
     inkscape:zoom="7.0738636"
     inkscape:cx="66.371084"
     inkscape:cy="38.734137"
     inkscape:window-width="1920"
     inkscape:window-height="1043"
     inkscape:window-x="0"
     inkscape:window-y="0"
     inkscape:window-maximized="1"
     inkscape:current-layer="g26" />
  <linearGradient
     id="b"
     x2="0"
     y2="100%">
    <stop
       offset="0"
       stop-color="#bbb"
       stop-opacity=".1"
       id="stop2" />
    <stop
       offset="1"
       stop-opacity=".1"
       id="stop4" />
  </linearGradient>
  <clipPath
     id="a">
    <rect
       width="176"
       height="20"
       rx="3"
       fill="#fff"
       id="rect7" />
  </clipPath>
  <g
     clip-path="url(#a)"
     id="g16">
    <path
       fill="#555"
       d="M0 0h137v20H0z"
       id="path10" />
    <path
       fill="#e05d44"
       d="M137 0h39v20H137z"
       id="path12" />
    <path
       fill="url(#b)"
       d="M0 0h176v20H0z"
       id="path14" />
  </g>
  <g
     fill="#fff"
     text-anchor="middle"
     font-family="DejaVu Sans,Verdana,Geneva,sans-serif"
     font-size="110"
     id="g26">
    <text
       x="695"
       y="150"
       fill="#010101"
       fill-opacity="0.3"
       transform="scale(0.1)"
       textLength="1270"
       id="text18"
       lengthAdjust="spacing">upgrade compatibility</text>
    <text
       x="695"
       y="140"
       transform="scale(0.1)"
       textLength="1270"
       id="text20"
       lengthAdjust="spacing">upgrade compatibility</text>
    <text
       x="1555"
       y="150"
       fill="#010101"
       fill-opacity=".3"
       transform="scale(.1)"
       textLength="290"
       id="text22">failed</text>
    <text
       x="1555"
       y="140"
       transform="scale(.1)"
       textLength="290"
       id="text24">failed</text>
  </g>
</svg>
